…
# 2 Add the location of the origin and destination (i.e. the lat and lon) to flights.

``` r
airports_loc = airports %>% select(faa, lat, lon)

flights %>% 
  left_join(airports_loc,
            by = c(origin = "faa")) %>% 
  left_join(airports_loc,
            by = c(dest = "faa"),
            suffix = c(".origin", ".destination")) %>% 
  select(origin, dest, lat.origin:lon.destination)
```

    ## # A tibble: 336,776 × 6
    ##    origin dest  lat.origin lon.origin lat.destination lon.destination
    ##    <chr>  <chr>      <dbl>      <dbl>           <dbl>           <dbl>
    ##  1 EWR    IAH         40.7      -74.2            30.0           -95.3
    ##  2 LGA    IAH         40.8      -73.9            30.0           -95.3
    ##  3 JFK    MIA         40.6      -73.8            25.8           -80.3
    ##  4 JFK    BQN         40.6      -73.8            NA              NA  
    ##  5 LGA    ATL         40.8      -73.9            33.6           -84.4
    ##  6 EWR    ORD         40.7      -74.2            42.0           -87.9
    ##  7 EWR    FLL         40.7      -74.2            26.1           -80.2
    ##  8 LGA    IAD         40.8      -73.9            38.9           -77.5
    ##  9 JFK    MCO         40.6      -73.8            28.4           -81.3
    ## 10 LGA    ORD         40.8      -73.9            42.0           -87.9
    ## # … with 336,766 more rows
…
